{
    "0": {
        "a_accession": "PX0001", 
        "a_accession_id": "PROT1_HUMAN", 
        "a_accession_source": "uniprotkb", 
        "b_accession": "PX0002", 
        "b_accession_id": "PROT2_HUMAN", 
        "b_accession_source": "uniprotkb", 
        "confidence": "0.74", 
        "method": [
            "MI:0493(in vivo)", 
            "MI:0018(two hybrid)"
        ], 
        "pmid": "12081471", 
        "source": [
            "MI:0468(hprd)", 
            "biogrid", 
            "MI:0469(intact)", 
            "MI:0471(mint)", 
            "i2d", 
            "rual05"
        ]
    }, 
    "1": {
        "a_accession": "PX0003", 
        "a_accession_id": "PROT3_HUMAN", 
        "a_accession_source": "uniprotkb", 
        "b_accession": "PX0004", 
        "b_accession_id": "PROT4_HUMAN", 
        "b_accession_source": "uniprotkb", 
        "confidence": "0.76", 
        "method": [
            "MI:0493(in vivo)", 
            "MI:0018(two hybrid)"
        ], 
        "pmid": "16189514", 
        "source": [
            "MI:0468(hprd)", 
            "biogrid", 
            "MI:0469(intact)", 
            "MI:0471(mint)", 
            "i2d", 
            "rual05"
        ]
    },
    "2": {
        "a_accession": "PX0005", 
        "a_accession_id": "PROT5_HUMAN", 
        "a_accession_source": "uniprotkb", 
        "b_accession": "PX0006", 
        "b_accession_id": "PROT6_HUMAN", 
        "b_accession_source": "uniprotkb", 
        "confidence": "0.76", 
        "method": [
            "MI:0493(in vivo)", 
            "MI:0018(two hybrid)"
        ], 
        "pmid": "16189514", 
        "source": [
            "MI:0468(hprd)", 
            "biogrid", 
            "MI:0469(intact)", 
            "MI:0471(mint)", 
            "i2d", 
            "rual05"
        ]
    },
    "3": {
        "a_accession": "PX0005", 
        "a_accession_id": "PROT5_HUMAN", 
        "a_accession_source": "uniprotkb", 
        "b_accession": "PX0004", 
        "b_accession_id": "PROT4_HUMAN", 
        "b_accession_source": "uniprotkb", 
        "confidence": "0.76", 
        "method": [
            "MI:0493(in vivo)", 
            "MI:0018(two hybrid)"
        ], 
        "pmid": "1122334455", 
        "source": [
            "MI:0468(hprd)", 
            "biogrid", 
            "MI:0469(intact)", 
            "MI:0471(mint)", 
            "i2d", 
            "rual05"
        ]
    },
    "4": {
        "a_accession": "PX0007", 
        "a_accession_id": "PROT7_HUMAN", 
        "a_accession_source": "uniprotkb", 
        "b_accession": "PX0008", 
        "b_accession_id": "PROT8_HUMAN", 
        "b_accession_source": "uniprotkb", 
        "confidence": "0.76", 
        "method": [
            "MI:0493(in vivo)", 
            "MI:0018(two hybrid)"
        ], 
        "pmid": "1100000001", 
        "source": [
            "MI:0468(hprd)", 
            "biogrid", 
            "MI:0469(intact)", 
            "MI:0471(mint)", 
            "i2d", 
            "rual05"
        ]
    },
    "5": {
        "a_accession": "PX0007", 
        "a_accession_id": "PROT7_HUMAN", 
        "a_accession_source": "uniprotkb", 
        "b_accession": "PX0008", 
        "b_accession_id": "PROT8_HUMAN", 
        "b_accession_source": "uniprotkb", 
        "confidence": "0.76", 
        "method": [
            "MI:0493(in vivo)", 
            "MI:0018(two hybrid)"
        ], 
        "pmid": "1100000002", 
        "source": [
            "MI:0468(hprd)", 
            "biogrid", 
            "MI:0469(intact)", 
            "MI:0471(mint)", 
            "i2d", 
            "rual05"
        ]
    }, 
    "6": {
        "a_accession": "Q99814", 
        "a_accession_id": "EPAS1_HUMAN", 
        "a_accession_source": "uniprotkb", 
        "b_accession": "Q09472", 
        "b_accession_id": "EP300_HUMAN", 
        "b_accession_source": "uniprotkb", 
        "confidence": "0.76", 
        "method": [
            "MI:0493(in vivo)", 
            "MI:0018(two hybrid)"
        ], 
        "pmid": "1100000002", 
        "source": [
            "MI:0468(hprd)", 
            "biogrid", 
            "MI:0469(intact)", 
            "MI:0471(mint)", 
            "i2d", 
            "rual05"
        ]
    }
}
